Intro to Time Series Wrangling & Viz
…
##Filtering Time Series Data Time series equivalent to filter is filter_index()- use to speify ranges of time series to keep or exclude

toolik_ts %>% 
  filter_index("2000-06" ~ "2001-10")

## # A tsibble: 518 x 5 [1D]
##    date       station              mean_airtemp daily_precip mean_windspeed
##    <date>     <chr>                       <dbl>        <dbl>          <dbl>
##  1 2000-06-01 Toolik Field Station          2.5          0              3.8
##  2 2000-06-02 Toolik Field Station         -3            6.6            2.3
##  3 2000-06-03 Toolik Field Station         -1.3          0.8            2.1
##  4 2000-06-04 Toolik Field Station          4.8          1.3            2  
##  5 2000-06-05 Toolik Field Station          8.5          0              3.2
##  6 2000-06-06 Toolik Field Station         12.8          0.8            4.1
##  7 2000-06-07 Toolik Field Station         12.9          0              2.8
##  8 2000-06-08 Toolik Field Station          9.5          0              3.2
##  9 2000-06-09 Toolik Field Station          9.6          1              2.7
## 10 2000-06-10 Toolik Field Station         12.3          0              3.1
## # ... with 508 more rows

toolik_ts %>% 
  filter_index("2006-04-10" ~ "2006-05-15")

## # A tsibble: 36 x 5 [1D]
##    date       station              mean_airtemp daily_precip mean_windspeed
##    <date>     <chr>                       <dbl>        <dbl>          <dbl>
##  1 2006-04-10 Toolik Field Station        -18.5            0             NA
##  2 2006-04-11 Toolik Field Station        -13.5            0             NA
##  3 2006-04-12 Toolik Field Station        -22.5            0             NA
##  4 2006-04-13 Toolik Field Station        -24              0             NA
##  5 2006-04-14 Toolik Field Station        -24.6            0             NA
##  6 2006-04-15 Toolik Field Station        -22.2            0             NA
##  7 2006-04-16 Toolik Field Station        -19.6            0             NA
##  8 2006-04-17 Toolik Field Station        -25              0             NA
##  9 2006-04-18 Toolik Field Station        -21.9            0             NA
## 10 2006-04-19 Toolik Field Station        -26.2            0             NA
## # ... with 26 more rows
…
